module github.com/devbackend/goingot

go 1.14

require (
	github.com/asaskevich/govalidator v0.0.0-20200907205600-7a23bdc65eef
	github.com/golang/mock v1.4.3
	github.com/gorilla/mux v1.7.4
	github.com/joho/godotenv v1.3.0
	github.com/mitchellh/go-homedir v1.1.0
	github.com/rs/zerolog v1.19.0
	github.com/spf13/cobra v1.0.0
	github.com/spf13/viper v1.4.0
	github.com/stretchr/testify v1.2.2
	gopkg.in/yaml.v2 v2.4.0 // indirect
)
